[{
    "id": "be94a2a9-9f94-41fa-b4d9-04892752c909",
    "name": "Team 1",
    "active": true,
    "teams": null
}, {
    "id": "82cc511a-16c1-4bae-8017-1c3668cf52d4",
    "name": "Team 2",
    "active": true,
    "teams": null
}, {
    "id": "569219d8-6012-4be2-9378-1d7a5e8c09d7",
    "name": "Team 3",
    "active": true,
    "teams": [{
            "active": false,
            "department": null,
            "departmentId": "08cce5bc-71de-4be7-a5ed-eb29316ec106",
            "id": "8b9768e7-8314-4bc9-aea6-bc57fd52a184",
            "name": "Earth",
            "usersLink": null
        },
        {
            "active": false,
            "department": null,
            "departmentId": "08cce5bc-71de-4be7-a5ed-eb29316ec106",
            "id": "07111565-2b05-48f6-8c21-884da53838fd",
            "name": "Sun",
            "usersLink": null
        }
    ]
}]
