[
    {
        "id": "90cadf09-db61-4fbf-a885-08d613cc494d",
        "name": "General",
        "description": ""
    },
    {
        "id": "fe826924-8b14-4a72-a886-08d613cc494d",
        "name": "Specific",
        "description": ""
    }
]
