{
    "Headline": {
        "EffectiveDate": "2018-11-05T07:00:00+02:00",
        "EffectiveEpochDate": 1541394000,
        "Severity": 5,
        "Text": "Ceaţa va afecta zona luni dimineaţa",
        "Category": "fog",
        "EndDate": "2018-11-05T13:00:00+02:00",
        "EndEpochDate": 1541415600,
        "MobileLink": "http://m.accuweather.com/ro/ro/bucharest/287430/extended-weather-forecast/287430?unit=c",
        "Link": "http://www.accuweather.com/ro/ro/bucharest/287430/daily-weather-forecast/287430?unit=c"
    },
    "DailyForecasts": [{
        "Date": "2018-11-05T07:00:00+02:00",
        "EpochDate": 1541394000,
        "Sun": {
            "Rise": "2018-11-05T06:58:00+02:00",
            "EpochRise": 1541393880,
            "Set": "2018-11-05T17:00:00+02:00",
            "EpochSet": 1541430000
        },
        "Moon": {
            "Rise": "2018-11-05T04:01:00+02:00",
            "EpochRise": 1541383260,
            "Set": "2018-11-05T16:17:00+02:00",
            "EpochSet": 1541427420,
            "Phase": "WaningCrescent",
            "Age": 27
        },
        "Temperature": {
            "Minimum": {
                "Value": 9.0,
                "Unit": "C",
                "UnitType": 17
            },
            "Maximum": {
                "Value": 18.2,
                "Unit": "C",
                "UnitType": 17
            }
        },
        "RealFeelTemperature": {
            "Minimum": {
                "Value": 6.9,
                "Unit": "C",
                "UnitType": 17
            },
            "Maximum": {
                "Value": 18.5,
                "Unit": "C",
                "UnitType": 17
            }
        },
        "RealFeelTemperatureShade": {
            "Minimum": {
                "Value": 6.9,
                "Unit": "C",
                "UnitType": 17
            },
            "Maximum": {
                "Value": 17.6,
                "Unit": "C",
                "UnitType": 17
            }
        },
        "HoursOfSun": 3.4,
        "DegreeDaySummary": {
            "Heating": {
                "Value": 4.0,
                "Unit": "C",
                "UnitType": 17
            },
            "Cooling": {
                "Value": 0.0,
                "Unit": "C",
                "UnitType": 17
            }
        },
        "AirAndPollen": [{
            "Name": "AirQuality",
            "Value": 0,
            "Category": "Bun",
            "CategoryValue": 1,
            "Type": "Ozon"
        }, {
            "Name": "Grass",
            "Value": 0,
            "Category": "Minimă",
            "CategoryValue": 1
        }, {
            "Name": "Mold",
            "Value": 0,
            "Category": "Minimă",
            "CategoryValue": 1
        }, {
            "Name": "Ragweed",
            "Value": 0,
            "Category": "Minimă",
            "CategoryValue": 1
        }, {
            "Name": "Tree",
            "Value": 0,
            "Category": "Minimă",
            "CategoryValue": 1
        }, {
            "Name": "UVIndex",
            "Value": 2,
            "Category": "Minimă",
            "CategoryValue": 1
        }],
        "Day": {
            "Icon": 4,
            "IconPhrase": "Nori sporadici",
            "ShortPhrase": "Nori joşi şi ceaţă",
            "LongPhrase": "Nori joşi şi ceaţă",
            "PrecipitationProbability": 1,
            "ThunderstormProbability": 0,
            "RainProbability": 1,
            "SnowProbability": 0,
            "IceProbability": 0,
            "Wind": {
                "Speed": {
                    "Value": 7.4,
                    "Unit": "km/h",
                    "UnitType": 7
                },
                "Direction": {
                    "Degrees": 73,
                    "Localized": "ENE",
                    "English": "ENE"
                }
            },
            "WindGust": {
                "Speed": {
                    "Value": 14.8,
                    "Unit": "km/h",
                    "UnitType": 7
                },
                "Direction": {
                    "Degrees": 69,
                    "Localized": "ENE",
                    "English": "ENE"
                }
            },
            "TotalLiquid": {
                "Value": 0.0,
                "Unit": "mm",
                "UnitType": 3
            },
            "Rain": {
                "Value": 0.0,
                "Unit": "mm",
                "UnitType": 3
            },
            "Snow": {
                "Value": 0.0,
                "Unit": "cm",
                "UnitType": 4
            },
            "Ice": {
                "Value": 0.0,
                "Unit": "mm",
                "UnitType": 3
            },
            "HoursOfPrecipitation": 0.0,
            "HoursOfRain": 0.0,
            "HoursOfSnow": 0.0,
            "HoursOfIce": 0.0,
            "CloudCover": 57
        },
        "Night": {
            "Icon": 38,
            "IconPhrase": "Predominant noros",
            "ShortPhrase": "Nori joşi şi ceaţă",
            "LongPhrase": "Nori joşi şi ceaţă",
            "PrecipitationProbability": 25,
            "ThunderstormProbability": 0,
            "RainProbability": 25,
            "SnowProbability": 0,
            "IceProbability": 0,
            "Wind": {
                "Speed": {
                    "Value": 9.3,
                    "Unit": "km/h",
                    "UnitType": 7
                },
                "Direction": {
                    "Degrees": 65,
                    "Localized": "ENE",
                    "English": "ENE"
                }
            },
            "WindGust": {
                "Speed": {
                    "Value": 14.8,
                    "Unit": "km/h",
                    "UnitType": 7
                },
                "Direction": {
                    "Degrees": 57,
                    "Localized": "ENE",
                    "English": "ENE"
                }
            },
            "TotalLiquid": {
                "Value": 0.0,
                "Unit": "mm",
                "UnitType": 3
            },
            "Rain": {
                "Value": 0.0,
                "Unit": "mm",
                "UnitType": 3
            },
            "Snow": {
                "Value": 0.0,
                "Unit": "cm",
                "UnitType": 4
            },
            "Ice": {
                "Value": 0.0,
                "Unit": "mm",
                "UnitType": 3
            },
            "HoursOfPrecipitation": 0.0,
            "HoursOfRain": 0.0,
            "HoursOfSnow": 0.0,
            "HoursOfIce": 0.0,
            "CloudCover": 83
        },
        "Sources": ["AccuWeather"],
        "MobileLink": "http://m.accuweather.com/ro/ro/bucharest/287430/daily-weather-forecast/287430?day=1&unit=c",
        "Link": "http://www.accuweather.com/ro/ro/bucharest/287430/daily-weather-forecast/287430?day=1&unit=c"
    }, {
        "Date": "2018-11-06T07:00:00+02:00",
        "EpochDate": 1541480400,
        "Sun": {
            "Rise": "2018-11-06T06:59:00+02:00",
            "EpochRise": 1541480340,
            "Set": "2018-11-06T16:59:00+02:00",
            "EpochSet": 1541516340
        },
        "Moon": {
            "Rise": "2018-11-06T05:12:00+02:00",
            "EpochRise": 1541473920,
            "Set": "2018-11-06T16:46:00+02:00",
            "EpochSet": 1541515560,
            "Phase": "WaningCrescent",
            "Age": 28
        },
        "Temperature": {
            "Minimum": {
                "Value": 7.3,
                "Unit": "C",
                "UnitType": 17
            },
            "Maximum": {
                "Value": 15.7,
                "Unit": "C",
                "UnitType": 17
            }
        },
        "RealFeelTemperature": {
            "Minimum": {
                "Value": 6.6,
                "Unit": "C",
                "UnitType": 17
            },
            "Maximum": {
                "Value": 14.9,
                "Unit": "C",
                "UnitType": 17
            }
        },
        "RealFeelTemperatureShade": {
            "Minimum": {
                "Value": 6.6,
                "Unit": "C",
                "UnitType": 17
            },
            "Maximum": {
                "Value": 15.3,
                "Unit": "C",
                "UnitType": 17
            }
        },
        "HoursOfSun": 3.2,
        "DegreeDaySummary": {
            "Heating": {
                "Value": 7.0,
                "Unit": "C",
                "UnitType": 17
            },
            "Cooling": {
                "Value": 0.0,
                "Unit": "C",
                "UnitType": 17
            }
        },
        "AirAndPollen": [{
            "Name": "AirQuality",
            "Value": 0,
            "Category": "Bun",
            "CategoryValue": 1,
            "Type": "Ozon"
        }, {
            "Name": "Grass",
            "Value": 0,
            "Category": "Minimă",
            "CategoryValue": 1
        }, {
            "Name": "Mold",
            "Value": 0,
            "Category": "Minimă",
            "CategoryValue": 1
        }, {
            "Name": "Ragweed",
            "Value": 0,
            "Category": "Minimă",
            "CategoryValue": 1
        }, {
            "Name": "Tree",
            "Value": 0,
            "Category": "Minimă",
            "CategoryValue": 1
        }, {
            "Name": "UVIndex",
            "Value": 1,
            "Category": "Minimă",
            "CategoryValue": 1
        }],
        "Day": {
            "Icon": 3,
            "IconPhrase": "Parţial însorit",
            "ShortPhrase": "Nori joşi şi ceaţă",
            "LongPhrase": "Nori joşi şi ceaţă",
            "PrecipitationProbability": 25,
            "ThunderstormProbability": 0,
            "RainProbability": 25,
            "SnowProbability": 0,
            "IceProbability": 0,
            "Wind": {
                "Speed": {
                    "Value": 11.1,
                    "Unit": "km/h",
                    "UnitType": 7
                },
                "Direction": {
                    "Degrees": 74,
                    "Localized": "ENE",
                    "English": "ENE"
                }
            },
            "WindGust": {
                "Speed": {
                    "Value": 18.5,
                    "Unit": "km/h",
                    "UnitType": 7
                },
                "Direction": {
                    "Degrees": 79,
                    "Localized": "E",
                    "English": "E"
                }
            },
            "TotalLiquid": {
                "Value": 0.0,
                "Unit": "mm",
                "UnitType": 3
            },
            "Rain": {
                "Value": 0.0,
                "Unit": "mm",
                "UnitType": 3
            },
            "Snow": {
                "Value": 0.0,
                "Unit": "cm",
                "UnitType": 4
            },
            "Ice": {
                "Value": 0.0,
                "Unit": "mm",
                "UnitType": 3
            },
            "HoursOfPrecipitation": 0.0,
            "HoursOfRain": 0.0,
            "HoursOfSnow": 0.0,
            "HoursOfIce": 0.0,
            "CloudCover": 75
        },
        "Night": {
            "Icon": 8,
            "IconPhrase": "Mohorât",
            "ShortPhrase": "Nori joşi",
            "LongPhrase": "Nori joşi",
            "PrecipitationProbability": 3,
            "ThunderstormProbability": 0,
            "RainProbability": 3,
            "SnowProbability": 0,
            "IceProbability": 0,
            "Wind": {
                "Speed": {
                    "Value": 9.3,
                    "Unit": "km/h",
                    "UnitType": 7
                },
                "Direction": {
                    "Degrees": 72,
                    "Localized": "ENE",
                    "English": "ENE"
                }
            },
            "WindGust": {
                "Speed": {
                    "Value": 13.0,
                    "Unit": "km/h",
                    "UnitType": 7
                },
                "Direction": {
                    "Degrees": 86,
                    "Localized": "E",
                    "English": "E"
                }
            },
            "TotalLiquid": {
                "Value": 0.0,
                "Unit": "mm",
                "UnitType": 3
            },
            "Rain": {
                "Value": 0.0,
                "Unit": "mm",
                "UnitType": 3
            },
            "Snow": {
                "Value": 0.0,
                "Unit": "cm",
                "UnitType": 4
            },
            "Ice": {
                "Value": 0.0,
                "Unit": "mm",
                "UnitType": 3
            },
            "HoursOfPrecipitation": 0.0,
            "HoursOfRain": 0.0,
            "HoursOfSnow": 0.0,
            "HoursOfIce": 0.0,
            "CloudCover": 95
        },
        "Sources": ["AccuWeather"],
        "MobileLink": "http://m.accuweather.com/ro/ro/bucharest/287430/daily-weather-forecast/287430?day=2&unit=c",
        "Link": "http://www.accuweather.com/ro/ro/bucharest/287430/daily-weather-forecast/287430?day=2&unit=c"
    }, {
        "Date": "2018-11-07T07:00:00+02:00",
        "EpochDate": 1541566800,
        "Sun": {
            "Rise": "2018-11-07T07:00:00+02:00",
            "EpochRise": 1541566800,
            "Set": "2018-11-07T16:58:00+02:00",
            "EpochSet": 1541602680
        },
        "Moon": {
            "Rise": "2018-11-07T06:21:00+02:00",
            "EpochRise": 1541564460,
            "Set": "2018-11-07T17:16:00+02:00",
            "EpochSet": 1541603760,
            "Phase": "New",
            "Age": 0
        },
        "Temperature": {
            "Minimum": {
                "Value": 5.7,
                "Unit": "C",
                "UnitType": 17
            },
            "Maximum": {
                "Value": 15.9,
                "Unit": "C",
                "UnitType": 17
            }
        },
        "RealFeelTemperature": {
            "Minimum": {
                "Value": 5.4,
                "Unit": "C",
                "UnitType": 17
            },
            "Maximum": {
                "Value": 15.3,
                "Unit": "C",
                "UnitType": 17
            }
        },
        "RealFeelTemperatureShade": {
            "Minimum": {
                "Value": 5.4,
                "Unit": "C",
                "UnitType": 17
            },
            "Maximum": {
                "Value": 15.6,
                "Unit": "C",
                "UnitType": 17
            }
        },
        "HoursOfSun": 4.0,
        "DegreeDaySummary": {
            "Heating": {
                "Value": 7.0,
                "Unit": "C",
                "UnitType": 17
            },
            "Cooling": {
                "Value": 0.0,
                "Unit": "C",
                "UnitType": 17
            }
        },
        "AirAndPollen": [{
            "Name": "AirQuality",
            "Value": 0,
            "Category": "Bun",
            "CategoryValue": 1,
            "Type": "Ozon"
        }, {
            "Name": "Grass",
            "Value": 0,
            "Category": "Minimă",
            "CategoryValue": 1
        }, {
            "Name": "Mold",
            "Value": 0,
            "Category": "Minimă",
            "CategoryValue": 1
        }, {
            "Name": "Ragweed",
            "Value": 0,
            "Category": "Minimă",
            "CategoryValue": 1
        }, {
            "Name": "Tree",
            "Value": 0,
            "Category": "Minimă",
            "CategoryValue": 1
        }, {
            "Name": "UVIndex",
            "Value": 1,
            "Category": "Minimă",
            "CategoryValue": 1
        }],
        "Day": {
            "Icon": 3,
            "IconPhrase": "Parţial însorit",
            "ShortPhrase": "Posibil burniţă",
            "LongPhrase": "Posibil burniţă",
            "PrecipitationProbability": 42,
            "ThunderstormProbability": 0,
            "RainProbability": 42,
            "SnowProbability": 0,
            "IceProbability": 0,
            "Wind": {
                "Speed": {
                    "Value": 9.3,
                    "Unit": "km/h",
                    "UnitType": 7
                },
                "Direction": {
                    "Degrees": 73,
                    "Localized": "ENE",
                    "English": "ENE"
                }
            },
            "WindGust": {
                "Speed": {
                    "Value": 13.0,
                    "Unit": "km/h",
                    "UnitType": 7
                },
                "Direction": {
                    "Degrees": 58,
                    "Localized": "ENE",
                    "English": "ENE"
                }
            },
            "TotalLiquid": {
                "Value": 0.0,
                "Unit": "mm",
                "UnitType": 3
            },
            "Rain": {
                "Value": 0.0,
                "Unit": "mm",
                "UnitType": 3
            },
            "Snow": {
                "Value": 0.0,
                "Unit": "cm",
                "UnitType": 4
            },
            "Ice": {
                "Value": 0.0,
                "Unit": "mm",
                "UnitType": 3
            },
            "HoursOfPrecipitation": 1.0,
            "HoursOfRain": 1.0,
            "HoursOfSnow": 0.0,
            "HoursOfIce": 0.0,
            "CloudCover": 74
        },
        "Night": {
            "Icon": 8,
            "IconPhrase": "Mohorât",
            "ShortPhrase": "Nori joşi",
            "LongPhrase": "Nori joşi",
            "PrecipitationProbability": 6,
            "ThunderstormProbability": 0,
            "RainProbability": 6,
            "SnowProbability": 0,
            "IceProbability": 0,
            "Wind": {
                "Speed": {
                    "Value": 7.4,
                    "Unit": "km/h",
                    "UnitType": 7
                },
                "Direction": {
                    "Degrees": 59,
                    "Localized": "ENE",
                    "English": "ENE"
                }
            },
            "WindGust": {
                "Speed": {
                    "Value": 11.1,
                    "Unit": "km/h",
                    "UnitType": 7
                },
                "Direction": {
                    "Degrees": 54,
                    "Localized": "NE",
                    "English": "NE"
                }
            },
            "TotalLiquid": {
                "Value": 0.0,
                "Unit": "mm",
                "UnitType": 3
            },
            "Rain": {
                "Value": 0.0,
                "Unit": "mm",
                "UnitType": 3
            },
            "Snow": {
                "Value": 0.0,
                "Unit": "cm",
                "UnitType": 4
            },
            "Ice": {
                "Value": 0.0,
                "Unit": "mm",
                "UnitType": 3
            },
            "HoursOfPrecipitation": 0.0,
            "HoursOfRain": 0.0,
            "HoursOfSnow": 0.0,
            "HoursOfIce": 0.0,
            "CloudCover": 94
        },
        "Sources": ["AccuWeather"],
        "MobileLink": "http://m.accuweather.com/ro/ro/bucharest/287430/daily-weather-forecast/287430?day=3&unit=c",
        "Link": "http://www.accuweather.com/ro/ro/bucharest/287430/daily-weather-forecast/287430?day=3&unit=c"
    }, {
        "Date": "2018-11-08T07:00:00+02:00",
        "EpochDate": 1541653200,
        "Sun": {
            "Rise": "2018-11-08T07:02:00+02:00",
            "EpochRise": 1541653320,
            "Set": "2018-11-08T16:56:00+02:00",
            "EpochSet": 1541688960
        },
        "Moon": {
            "Rise": "2018-11-08T07:29:00+02:00",
            "EpochRise": 1541654940,
            "Set": "2018-11-08T17:49:00+02:00",
            "EpochSet": 1541692140,
            "Phase": "WaxingCrescent",
            "Age": 1
        },
        "Temperature": {
            "Minimum": {
                "Value": 3.1,
                "Unit": "C",
                "UnitType": 17
            },
            "Maximum": {
                "Value": 15.4,
                "Unit": "C",
                "UnitType": 17
            }
        },
        "RealFeelTemperature": {
            "Minimum": {
                "Value": 3.2,
                "Unit": "C",
                "UnitType": 17
            },
            "Maximum": {
                "Value": 15.8,
                "Unit": "C",
                "UnitType": 17
            }
        },
        "RealFeelTemperatureShade": {
            "Minimum": {
                "Value": 3.2,
                "Unit": "C",
                "UnitType": 17
            },
            "Maximum": {
                "Value": 15.9,
                "Unit": "C",
                "UnitType": 17
            }
        },
        "HoursOfSun": 4.3,
        "DegreeDaySummary": {
            "Heating": {
                "Value": 9.0,
                "Unit": "C",
                "UnitType": 17
            },
            "Cooling": {
                "Value": 0.0,
                "Unit": "C",
                "UnitType": 17
            }
        },
        "AirAndPollen": [{
            "Name": "AirQuality",
            "Value": 0,
            "Category": "Bun",
            "CategoryValue": 1,
            "Type": "Ozon"
        }, {
            "Name": "Grass",
            "Value": 0,
            "Category": "Minimă",
            "CategoryValue": 1
        }, {
            "Name": "Mold",
            "Value": 0,
            "Category": "Minimă",
            "CategoryValue": 1
        }, {
            "Name": "Ragweed",
            "Value": 0,
            "Category": "Minimă",
            "CategoryValue": 1
        }, {
            "Name": "Tree",
            "Value": 0,
            "Category": "Minimă",
            "CategoryValue": 1
        }, {
            "Name": "UVIndex",
            "Value": 1,
            "Category": "Minimă",
            "CategoryValue": 1
        }],
        "Day": {
            "Icon": 3,
            "IconPhrase": "Parţial însorit",
            "ShortPhrase": "Nori joşi şi ceaţă",
            "LongPhrase": "Nori joşi şi ceaţă",
            "PrecipitationProbability": 6,
            "ThunderstormProbability": 0,
            "RainProbability": 6,
            "SnowProbability": 0,
            "IceProbability": 0,
            "Wind": {
                "Speed": {
                    "Value": 7.4,
                    "Unit": "km/h",
                    "UnitType": 7
                },
                "Direction": {
                    "Degrees": 52,
                    "Localized": "NE",
                    "English": "NE"
                }
            },
            "WindGust": {
                "Speed": {
                    "Value": 11.1,
                    "Unit": "km/h",
                    "UnitType": 7
                },
                "Direction": {
                    "Degrees": 50,
                    "Localized": "NE",
                    "English": "NE"
                }
            },
            "TotalLiquid": {
                "Value": 0.0,
                "Unit": "mm",
                "UnitType": 3
            },
            "Rain": {
                "Value": 0.0,
                "Unit": "mm",
                "UnitType": 3
            },
            "Snow": {
                "Value": 0.0,
                "Unit": "cm",
                "UnitType": 4
            },
            "Ice": {
                "Value": 0.0,
                "Unit": "mm",
                "UnitType": 3
            },
            "HoursOfPrecipitation": 0.0,
            "HoursOfRain": 0.0,
            "HoursOfSnow": 0.0,
            "HoursOfIce": 0.0,
            "CloudCover": 69
        },
        "Night": {
            "Icon": 35,
            "IconPhrase": "Parţial noros",
            "ShortPhrase": "Parţial noros",
            "LongPhrase": "Parţial noros",
            "PrecipitationProbability": 4,
            "ThunderstormProbability": 0,
            "RainProbability": 4,
            "SnowProbability": 0,
            "IceProbability": 0,
            "Wind": {
                "Speed": {
                    "Value": 5.6,
                    "Unit": "km/h",
                    "UnitType": 7
                },
                "Direction": {
                    "Degrees": 35,
                    "Localized": "NE",
                    "English": "NE"
                }
            },
            "WindGust": {
                "Speed": {
                    "Value": 9.3,
                    "Unit": "km/h",
                    "UnitType": 7
                },
                "Direction": {
                    "Degrees": 52,
                    "Localized": "NE",
                    "English": "NE"
                }
            },
            "TotalLiquid": {
                "Value": 0.0,
                "Unit": "mm",
                "UnitType": 3
            },
            "Rain": {
                "Value": 0.0,
                "Unit": "mm",
                "UnitType": 3
            },
            "Snow": {
                "Value": 0.0,
                "Unit": "cm",
                "UnitType": 4
            },
            "Ice": {
                "Value": 0.0,
                "Unit": "mm",
                "UnitType": 3
            },
            "HoursOfPrecipitation": 0.0,
            "HoursOfRain": 0.0,
            "HoursOfSnow": 0.0,
            "HoursOfIce": 0.0,
            "CloudCover": 42
        },
        "Sources": ["AccuWeather"],
        "MobileLink": "http://m.accuweather.com/ro/ro/bucharest/287430/daily-weather-forecast/287430?day=4&unit=c",
        "Link": "http://www.accuweather.com/ro/ro/bucharest/287430/daily-weather-forecast/287430?day=4&unit=c"
    }, {
        "Date": "2018-11-09T07:00:00+02:00",
        "EpochDate": 1541739600,
        "Sun": {
            "Rise": "2018-11-09T07:03:00+02:00",
            "EpochRise": 1541739780,
            "Set": "2018-11-09T16:55:00+02:00",
            "EpochSet": 1541775300
        },
        "Moon": {
            "Rise": "2018-11-09T08:35:00+02:00",
            "EpochRise": 1541745300,
            "Set": "2018-11-09T18:25:00+02:00",
            "EpochSet": 1541780700,
            "Phase": "WaxingCrescent",
            "Age": 2
        },
        "Temperature": {
            "Minimum": {
                "Value": 3.7,
                "Unit": "C",
                "UnitType": 17
            },
            "Maximum": {
                "Value": 15.3,
                "Unit": "C",
                "UnitType": 17
            }
        },
        "RealFeelTemperature": {
            "Minimum": {
                "Value": 2.8,
                "Unit": "C",
                "UnitType": 17
            },
            "Maximum": {
                "Value": 17.2,
                "Unit": "C",
                "UnitType": 17
            }
        },
        "RealFeelTemperatureShade": {
            "Minimum": {
                "Value": 2.8,
                "Unit": "C",
                "UnitType": 17
            },
            "Maximum": {
                "Value": 15.1,
                "Unit": "C",
                "UnitType": 17
            }
        },
        "HoursOfSun": 7.9,
        "DegreeDaySummary": {
            "Heating": {
                "Value": 8.0,
                "Unit": "C",
                "UnitType": 17
            },
            "Cooling": {
                "Value": 0.0,
                "Unit": "C",
                "UnitType": 17
            }
        },
        "AirAndPollen": [{
            "Name": "AirQuality",
            "Value": 0,
            "Category": "Bun",
            "CategoryValue": 1,
            "Type": "Ozon"
        }, {
            "Name": "Grass",
            "Value": 0,
            "Category": "Minimă",
            "CategoryValue": 1
        }, {
            "Name": "Mold",
            "Value": 0,
            "Category": "Minimă",
            "CategoryValue": 1
        }, {
            "Name": "Ragweed",
            "Value": 0,
            "Category": "Minimă",
            "CategoryValue": 1
        }, {
            "Name": "Tree",
            "Value": 0,
            "Category": "Minimă",
            "CategoryValue": 1
        }, {
            "Name": "UVIndex",
            "Value": 2,
            "Category": "Minimă",
            "CategoryValue": 1
        }],
        "Day": {
            "Icon": 2,
            "IconPhrase": "Predominant însorit",
            "ShortPhrase": "Însorit spre parţial noros",
            "LongPhrase": "Însorit spre parţial noros",
            "PrecipitationProbability": 6,
            "ThunderstormProbability": 0,
            "RainProbability": 6,
            "SnowProbability": 0,
            "IceProbability": 0,
            "Wind": {
                "Speed": {
                    "Value": 5.6,
                    "Unit": "km/h",
                    "UnitType": 7
                },
                "Direction": {
                    "Degrees": 48,
                    "Localized": "NE",
                    "English": "NE"
                }
            },
            "WindGust": {
                "Speed": {
                    "Value": 9.3,
                    "Unit": "km/h",
                    "UnitType": 7
                },
                "Direction": {
                    "Degrees": 38,
                    "Localized": "NE",
                    "English": "NE"
                }
            },
            "TotalLiquid": {
                "Value": 0.0,
                "Unit": "mm",
                "UnitType": 3
            },
            "Rain": {
                "Value": 0.0,
                "Unit": "mm",
                "UnitType": 3
            },
            "Snow": {
                "Value": 0.0,
                "Unit": "cm",
                "UnitType": 4
            },
            "Ice": {
                "Value": 0.0,
                "Unit": "mm",
                "UnitType": 3
            },
            "HoursOfPrecipitation": 0.0,
            "HoursOfRain": 0.0,
            "HoursOfSnow": 0.0,
            "HoursOfIce": 0.0,
            "CloudCover": 25
        },
        "Night": {
            "Icon": 36,
            "IconPhrase": "Nori sporadici",
            "ShortPhrase": "Parţial spre predominant noros",
            "LongPhrase": "Parţial spre predominant noros",
            "PrecipitationProbability": 9,
            "ThunderstormProbability": 0,
            "RainProbability": 9,
            "SnowProbability": 0,
            "IceProbability": 0,
            "Wind": {
                "Speed": {
                    "Value": 7.4,
                    "Unit": "km/h",
                    "UnitType": 7
                },
                "Direction": {
                    "Degrees": 46,
                    "Localized": "NE",
                    "English": "NE"
                }
            },
            "WindGust": {
                "Speed": {
                    "Value": 11.1,
                    "Unit": "km/h",
                    "UnitType": 7
                },
                "Direction": {
                    "Degrees": 45,
                    "Localized": "NE",
                    "English": "NE"
                }
            },
            "TotalLiquid": {
                "Value": 0.0,
                "Unit": "mm",
                "UnitType": 3
            },
            "Rain": {
                "Value": 0.0,
                "Unit": "mm",
                "UnitType": 3
            },
            "Snow": {
                "Value": 0.0,
                "Unit": "cm",
                "UnitType": 4
            },
            "Ice": {
                "Value": 0.0,
                "Unit": "mm",
                "UnitType": 3
            },
            "HoursOfPrecipitation": 0.0,
            "HoursOfRain": 0.0,
            "HoursOfSnow": 0.0,
            "HoursOfIce": 0.0,
            "CloudCover": 61
        },
        "Sources": ["AccuWeather"],
        "MobileLink": "http://m.accuweather.com/ro/ro/bucharest/287430/daily-weather-forecast/287430?day=5&unit=c",
        "Link": "http://www.accuweather.com/ro/ro/bucharest/287430/daily-weather-forecast/287430?day=5&unit=c"
    }]
}
